Exploring the BRFSS data
…
sleeptime_health

## # A tibble: 24 x 3
##    sleptim1 physhlth menthlth
##       <int>    <dbl>    <dbl>
##  1        1    12.8     11.6 
##  2        2    15.5     13.2 
##  3        3    13.5     12.3 
##  4        4    10.9      9.79
##  5        5     6.88     6.27
##  6        6     4.47     3.92
##  7        7     2.78     2.19
##  8        8     3.44     2.21
##  9        9     4.31     2.74
## 10       10     7.40     4.71
## # ... with 14 more rows
…
